// Jest Snapshot v1, https://goo.gl/fbAQLP

exports[`CaseSummary test Creates snapshot test for <CaseSummary /> 1`] = `
<div>
  <Modal
    alternativeHeaderColor={false}
    brandTag="wsj"
    disableAnimate={false}
    disableClose={false}
    disableOnClickOutside={false}
    disableTextClose={false}
    minHeight={false}
    modalHeader="Case Summary"
    modalPadding={null}
    showModal={false}
    toggleModal={[Function]}
    zoomImageClassName=""
  >
    <div
      className="row cs-row cs-odd clearfix"
    >
      <div
        className="cs-type-name col-xs-5 no-pad"
      >
        Color
      </div>
      <div
        className="col-xs-7 cs-type-name"
      />
    </div>
    <div
      className="row cs-row clearfix cs-even"
    >
      <div
        className="cs-type-name col-xs-5 no-pad"
      >
        Reds
      </div>
      <div
        className="col-xs-7"
      >
        <ul
          className="case-summary-list"
        >
          <li
            className="case-summary-list-row"
          >
             No 
            Red
             Wines 
          </li>
        </ul>
      </div>
    </div>
    <div
      className="row cs-row clearfix cs-odd"
    >
      <div
        className="cs-type-name col-xs-5 no-pad"
      >
        Whites
      </div>
      <div
        className="col-xs-7"
      >
        <ul
          className="case-summary-list"
        >
          <li
            className="case-summary-list-row"
          >
             No 
            White
             Wines 
          </li>
        </ul>
      </div>
    </div>
    <div
      className="row cs-row clearfix cs-even"
    >
      <div
        className="cs-type-name col-xs-5 no-pad"
      >
        Rosés
      </div>
      <div
        className="col-xs-7"
      >
        <ul
          className="case-summary-list"
        >
          <li
            className="case-summary-list-row"
          >
             No 
            Rosé
             Wines 
          </li>
        </ul>
      </div>
    </div>
    <div
      className="row cs-row clearfix cs-odd"
    >
      <div
        className="cs-type-name col-xs-5 no-pad"
      >
        Country
      </div>
      <div
        className="col-xs-7"
      >
        <ul
          className="case-summary-list"
        />
      </div>
    </div>
  </Modal>
</div>
`;
