// Jest Snapshot v1, https://goo.gl/fbAQLP

exports[`CartProvider Cart Modal test Creates snapshot test for <CartModal /> 1`] = `
<ContextProvider
  value={
    Object {
      "cartActions": Object {
        "addItem": [Function],
        "deleteCommerceItem": [Function],
        "deleteItem": [Function],
        "fetchCart": [Function],
        "triggerCartModal": [Function],
        "updateItem": [Function],
      },
      "cartDispatch": [Function],
      "cartState": Object {
        "cartDetails": Object {},
        "errorDetails": Object {
          "hasError": false,
          "message": false,
        },
        "finalCartItems": Array [],
        "isCartEmpty": false,
        "isEVouchersOnly": "",
        "isLoading": false,
        "isUnlimitedInCart": Array [],
        "isWineClubCases": Array [],
        "showCartModal": false,
      },
    }
  }
>
  <CartModal
    showModal={true}
    toggleModal={[Function]}
  />
</ContextProvider>
`;
