// Jest Snapshot v1, https://goo.gl/fbAQLP

exports[`PrivacyPolicyContent test Creates snapshot test for <PrivacyPolicyContent /> default LAW 1`] = `
<Fragment>
  <Styled(div)>
    <LoadingIcon
      type="default"
    />
  </Styled(div)>
</Fragment>
`;
