// Jest Snapshot v1, https://goo.gl/fbAQLP

exports[`Button test renders <Button/> component snapshot 1`] = `
<Styled(button)
  buttonSize="flex"
  buttonType="primary"
  className=""
  data-cy="btn"
  disabled={false}
  onClick={[Function]}
  theme={
    Object {
      "body": Object {
        "width": "80%",
      },
      "brand": "laithwaites",
      "button": Object {
        "borderRadius": "0px",
        "flex": Object {
          "fontSize": "16px",
          "height": "34px",
          "padding": "0px 50px",
        },
        "fontFamily": "\\"OpenSans Bold\\", georgia, sans-serif",
        "fontSize": "16px",
        "fontWeight": "normal",
        "large": Object {
          "fontSize": "16px",
          "height": "50px",
          "padding": "0px 40px",
        },
        "letterSpacing": ".9px",
        "primary": Object {
          "activeBackgroundColor": "#D83E55",
          "activeButtonColor": "#fff",
          "backgroundColor": "#CF004F",
          "border": "1px solid #CF004F",
          "padding": "0px 0px",
          "textColor": "#ffffff",
        },
        "secondary": Object {
          "activeBackgroundColor": "#D83E55",
          "activeButtonColor": "#fff",
          "backgroundColor": "#fff",
          "border": "1px solid #000000",
          "padding": "0px 0px",
          "textColor": "#000000",
        },
        "small": Object {
          "fontSize": "16px",
          "height": "44px",
          "padding": "0px 20px",
        },
        "textTransform": "uppercase",
      },
      "checkbox": Object {
        "borderRadius": "none",
        "checkBorder": "1px solid #ccc",
        "checkMarkBorder": "solid #ffffff",
        "checkMarkBorderWidth": "0 1.5px 1.5px 0",
        "checkMarkHeight": "15px",
        "checkMarkWidth": "5px",
        "checkedBackgroundColor": "#000000",
        "checkedBackgroundHeight": "21px",
        "checkedBackgroundWidth": "21px",
      },
      "colors": Object {
        "backgroundDark": "#000000",
        "backgroundGreyBlue": "#82B4C8",
        "backgroundLight": "#faf3e6",
        "backgroundModal": "rgba(0, 0, 0, 0.65)",
        "body": "#000000",
        "borderBottom": "#ABC7AB",
        "borderDark": "#000000",
        "borderDarkGrey": "rgb(0,0,0,.8)",
        "borderLight": "rgba(153, 153, 153, 0.2)",
        "containerBackground": "#faf3e6",
        "grey": "#ccc",
        "headerRed": "#cf004f",
        "highlight": "#cf004f",
        "link": "#055faf",
        "outOfStockMessageBackground": "#faf3e6",
        "placeholderText": "rgba(0, 0, 0, 0.7)",
        "textInputBackgroundColor": "#f5f5f5",
        "toolTipInput": "rgb(60,60,60)",
        "white": "#ffffff",
      },
      "errors": Object {
        "color": "#cf004f",
        "fontSize": "12px",
        "formErrors": Object {
          "fontSize": "16px",
          "lineHeight": "20px",
        },
      },
      "fonts": Object {
        "default": "\\"OpenSans SemiBold\\", georgia, sans-serif",
        "estimatedDelivery": "\\"OpenSans Bold\\", georgia, sans-serif",
        "headerSize": "40px",
        "inputLineHeight": "30px",
        "lineHeight": "24px",
        "paymentHeaderLineHeight": "38px",
        "primary": "\\"OpenSans Regular\\", georgia, sans-serif",
        "productHeadline": "\\"Noto Serif\\", sans-serif",
        "regularWeight": "400",
        "secondary": "\\"OpenSans Regular\\", georgia, sans-serif",
        "size": "16px",
        "spacing": Object {
          "bodyLetterSpacing": "0px",
          "headerSpacing": "0px",
          "letterSpacing": "0px",
          "orderSummarySpacing": "0px",
          "pageHeaderSpacing": "0px",
          "subHeaderLetterSpacing": "0px",
          "totalLetterSpacing": "0px",
        },
        "special": "\\"Oswald Regular\\", georgia, sans-serif",
        "subHeader": "\\"OpenSans Bold\\", georgia, sans-serif",
        "total": "\\"OpenSans Bold\\", georgia, sans-serif",
      },
      "footer": Object {
        "background": Object {
          "dark": "#000000",
          "light": "#faf3e6",
        },
        "borderColor": "#ABC7AB",
        "font": Object {
          "color": "#000000",
        },
      },
      "header": Object {
        "guarantee": Object {
          "font": "\\"Noto Serif\\", georgia, sans-serif",
          "title": Object {
            "font": "\\"OpenSans Bold\\", georgia, sans-serif",
          },
        },
        "logo": Object {
          "width": "180px",
        },
      },
      "headerFontWeights": Object {
        "h2": "inherit",
      },
      "input": Object {
        "borderColor": " rgb(0,0,0,.8)",
        "borderStyle": "none, none, solid, none",
        "borderWidth": "0 0 2px 0",
        "color": "#000000",
        "dobWidth": "50%",
        "fontFamily": "\\"OpenSans Regular\\", georgia, sans-serif",
        "fontSize": "14px",
        "labelTranslate": "translate(0, -10px) scale(0.75)",
        "placeholder": "rgba(0, 0, 0, 0.7)",
      },
      "modal": Object {
        "backdrop": Object {
          "backgroundColor": "rgba(0, 0, 0, 0.65)",
        },
        "backgroundColor": "#ffffff",
        "header": Object {
          "backgroundColor": "#faf3e6",
          "close": Object {
            "color": "#000000",
            "fontSize": "1.2rem",
          },
          "color": "#000000",
          "fontFamily": "\\"Oswald Bold\\", georgia, sans-serif",
          "fontSize": "24px",
          "lineHeight": "30px",
          "textTransform": "uppercase",
        },
        "width": "80%",
      },
      "name": "Laithwaites",
      "radioButton": Object {
        "borderRadius": "50%",
        "checkMark": "0 1.5px 1.5px 0",
        "checkMarkBorder": "1px solid rgba(153, 153, 153, 0.2)",
        "checkMarkBorderHeight": "21px",
        "checkMarkBorderWidth": "21px",
        "checkMarkColor": "solid #ffffff",
        "checkMarkHeight": "13px",
        "checkMarkWidth": "6px",
        "checkedBackgroundColor": "#000000",
        "checkedBackgroundHeight": "21px",
        "checkedBackgroundWidth": "21px",
      },
      "stepWizard": Object {
        "color": "#000000",
        "fontFamily": "\\"OpenSans Regular\\", georgia, sans-serif",
        "fontWeight": "600",
        "letterSpacing": "1.2px",
        "step": Object {
          "active": Object {
            "backgroundColor": "#000000",
            "color": "#ffffff",
          },
          "backgroundColor": "#ffffff",
          "color": "#000000",
          "navNumber": Object {
            "display": "inline-block",
          },
          "navNumberContainer": Object {
            "border": "1px solid #000000",
            "display": "inline-block",
          },
        },
        "textTransform": "uppercase",
      },
      "unlimitedModal": Object {
        "color": "#000000",
        "fontFamily": "\\"OpenSans Regular\\", georgia, sans-serif",
        "fontSize": "16px",
        "fontWeight": "400",
        "header": Object {
          "color": "#000000",
          "fontSize": "22px",
          "fontWeight": "400",
        },
        "lineHeight": "26px",
        "subHeader": Object {
          "fontSize": "16px",
        },
      },
      "unlimitedPage": Object {
        "color": "#000000",
        "fontFamily": "\\"OpenSans Regular\\", georgia, sans-serif",
        "fontSize": "16px",
        "fontWeight": "400",
        "header": Object {
          "color": "#000000",
          "fontSize": "2.6rem",
          "fontWeight": "400",
          "lineHeight": "3.2rem",
        },
        "lineHeight": "26px",
        "subHeader": Object {
          "color": "#cf004f",
          "fontSize": "1.8rem",
          "lineHeight": "2.6rem",
        },
      },
    }
  }
  type="button"
>
  Test
</Styled(button)>
`;
