// Jest Snapshot v1, https://goo.gl/fbAQLP

exports[`ExclamationTriangleIcon test Creates snapshot SVG for ExclamationTriangle Icon   1`] = `
<svg
  className={null}
  fill="#D1782A"
  focusable="false"
  height="14px"
  viewBox="0 0 16.2 14.4"
  width="16px"
  x="0px"
  y="0px"
>
  <path
    className="exclamation-triangle-path"
    d="M16,12.4c0.5,0.9-0.1,2-1.2,2H1.4c-1,0-1.7-1.1-1.2-2L6.9,0.7c0.5-0.9,1.8-0.9,2.3,0L16,12.4L16,12.4z M8.1,9.9 c-0.7,0-1.3,0.6-1.3,1.3s0.6,1.3,1.3,1.3s1.3-0.6,1.3-1.3S8.8,9.9,8.1,9.9z M6.9,5.3l0.2,3.8c0,0.2,0.2,0.3,0.3,0.3h1.4 c0.2,0,0.3-0.1,0.3-0.3l0.2-3.8c0-0.2-0.1-0.4-0.3-0.4H7.2C7,4.9,6.9,5.1,6.9,5.3L6.9,5.3z"
  />
</svg>
`;

exports[`ExclamationTriangleIcon test Creates snapshot test for ExclamationTriangle Icon  1`] = `
<img
  alt="exclamation-triangle"
  className="exclamation-error "
  height="14px"
  src="/images/us/common/icons/wsj/exclamation_triangle_solid_16x14.svg"
  width="16px"
/>
`;
